{
    "mahesh" : {
       "name" : "mahesh",
       "password" : "password1",
       "profession" : "teacher"
    },
    "suresh" : {
       "name" : "suresh",
       "password" : "password2",
       "profession" : "librarian"
    },
    "ramesh" : {
       "name" : "ramesh",
       "password" : "password3",
       "profession" : "clerk"
    }
 }